{
  "name": "Initial evnet",
  "type": "walk",
  "start_date": "2018/09/10 12:40",
  "end_date": "2018/09/10 12:45",
  "geolocation": [
         {
             "source_date" : ("2018-09-10T12:40:00.000Z"),
             "source": "browser",
             "type": "Point",
             "coordinates": [-33.9, 18.4]
         },
         {
 			"source_date" : ("2018-09-10T12:42:00.000Z"),
             "source": "browser",
             "type": "Point",
             "coordinates": [-33.92, 18.46]
         },
         {
 			"source_date" : ("2018-09-10T12:45:00.000Z"),
             "source": "browser",
             "type": "Point",
             "coordinates": [-33.9, 18.4]
         }
     ]
}
